590
FAU
Si            -9.276310            10.349689           -11.326848
Si            -9.285942            -5.185282           -11.322463
Si            -9.272087            10.351070            -7.023535
Si            -9.291133            -5.201239            -7.011363
Si           -11.432525            -9.526659            10.705471
Si           -11.437002            -9.529190            -4.833821
Si            -7.111144            -9.516602            10.688411
Si            -7.127187            -9.528795            -4.841076
Si            10.591280           -11.680050            -9.167933
Si            -4.928505           -11.675153            -9.193773
Si            10.583726            -7.374087            -9.166521
Si            -4.928065            -7.366601            -9.169041
Si             8.871612           -11.244120            11.139009
Si             8.873848             4.295253            11.140934
Si             8.867454           -11.244965             6.834864
Si             8.872380             4.295327             6.833109
Si            11.029743             8.628631           -10.887182
Si            11.022863             8.627606             4.651304
Si             6.721136             8.626658           -10.881401
Si             6.712873             8.628453             4.657935
Si           -10.995366            10.785171             8.983105
Si             4.532079            10.781730             8.992065
Si           -10.996959             6.476798             8.982713
Si             4.539649             6.476335             8.989521
Si            -9.281451            -1.755229             0.778938
Si            -9.283701             6.911237             0.776750
Si            -9.277700            -1.749715             5.084482
Si            -9.283105             6.912407             5.084130
Si           -11.437362             2.576246            -1.400243
Si           -11.433832             2.580611             7.266048
Si            -7.129791             2.578208            -1.403749
Si            -7.125187             2.580485             7.262168
Si            10.588454             0.422660             2.934729
Si            -4.943197             0.427327             2.928080
Si            10.585794             4.731198             2.934086
Si            -4.948261             4.731057             2.928783
Si             8.870170             0.856280            -0.960906
Si             8.871135            -7.812514            -0.962157
Si             8.867617             0.856414            -5.267378
Si             8.870045            -7.811214            -5.269365
Si            11.026421            -3.476072             1.218488
Si            11.020383            -3.478063            -7.447249
Si             6.719707            -3.479617             1.216237
Si             6.713247            -3.474419            -7.448866
Si           -11.000885            -1.323121            -3.116332
Si             4.532919            -1.321377            -3.113874
Si           -11.000005            -5.632105            -3.114582
Si             4.537140            -5.630232            -3.117572
Si             2.814669            10.345042             0.787748
Si             2.824283            -5.198063             0.777804
Si             2.810704            10.350341             5.098970
Si             2.821753            -5.189999             5.086099
Si             0.667060            -9.528340            -1.397747
Si             0.618883            -9.530084             7.339007
Si             4.973838            -9.528755            -1.398990
Si             4.963944            -9.529666             7.271314
Si            -1.516273           -11.677398             2.942947
Si             7.148470           -11.682250             2.936897
Si            -1.510774            -7.371154             2.938895
Si             7.155841            -7.378397             2.933128
Si            -3.230087           -11.242450            -0.962012
Si            -3.236996             4.299118            -0.969638
Si            -3.229328           -11.243014            -5.273808
Si            -3.231605             4.301154            -5.274755
Si            -1.079414             8.627835             1.220418
Si            -1.072982             8.629076            -7.449291
Si            -5.386069             8.629183             1.214113
Si            -5.380030             8.633272            -7.457055
Si             1.102166            10.779297            -3.112848
Si            -7.561713            10.780717            -3.121386
Si             1.101770             6.473787            -3.112970
Si            -7.567259             6.475811            -3.122110
Si             2.817121            -1.747189           -11.318799
Si             2.824276             6.910501           -11.316618
Si             2.817078            -1.754467            -7.011734
Si             2.822366             6.909570            -7.009724
Si             0.667505             2.581814            10.702562
Si             0.663437             2.578255            -4.832034
Si             4.976148             2.581376            10.706538
Si             4.971676             2.575495            -4.829632
Si            -1.512925             0.432626            -9.169759
Si             7.152613             0.423507            -9.164817
Si            -1.510788             4.734714            -9.169314
Si             7.157534             4.730729            -9.164091
Si            -3.229160             0.864089            11.135302
Si            -3.300150            -7.751033            11.155146
Si            -3.227638             0.863282             6.827278
Si            -3.197790            -7.776014             6.817513
Si            -1.082451            -3.466198           -10.886988
Si            -1.064485            -3.462605             4.636135
Si            -5.408056            -3.447302           -10.852399
Si            -5.379985            -3.469347             4.647573
Si             1.110234            -1.310764             8.976148
Si            -7.563393            -1.314787             8.986148
Si             1.159356            -5.605971             8.967965
Si            -7.585107            -5.617073             8.988417
Si           -11.428929            10.348517            -9.173728
Si            -7.132352            -5.187390            -9.167820
Si            -7.118462            10.354515            -9.177484
Si           -11.441248            -5.196639            -9.164322
Si            -9.273911           -11.674392            10.699296
Si            -9.284371            -7.377028            -4.832697
Si            -9.278051            -7.368855            10.702626
Si            -9.280132           -11.680391            -4.839269
Si            10.588711            -9.526530           -11.320826
Si            -4.945643            -9.527124            -7.023419
Si            10.586772            -9.527751            -7.013413
Si            -4.878667            -9.527729           -11.369110
Si            11.025505           -11.241727             8.986218
Si             6.719825             4.297328             8.988370
Si             6.714152           -11.244789             8.987418
Si            11.027073             4.296763             8.985097
Si             8.874617            10.780019           -10.885203
Si             8.868794             6.474637             4.652752
Si             8.875344             6.473971           -10.882043
Si             8.867258            10.779646             4.655283
Si           -10.994920             8.631040            11.135894
Si             4.532926             8.630760             6.837460
Si           -10.998793             8.630125             6.829089
Si             4.540717             8.627385            11.144301
Si           -11.433870            -1.755528             2.932787
Si            -7.129530             6.910613             2.929693
Si            -7.125518            -1.750002             2.931662
Si           -11.437930             6.911400             2.932077
Si            -9.283180             0.423509            -1.401929
Si            -9.280651             4.733418             7.264269
Si            -9.283966             4.731542            -1.403918
Si            -9.278651             0.428471             7.263975
Si            10.587122             2.575959             0.780921
Si            -4.944947             2.579716             5.082857
Si            10.588325             2.577963             5.088065
Si            -4.949007             2.578704             0.774667
Si            11.022787             0.856280            -3.114843
Si             6.716914            -7.810871            -3.115696
Si             6.714608             0.856877            -3.113964
Si            11.024349            -7.812221            -3.116000
Si             8.871866            -1.323707             1.218742
Si             8.866735            -5.630501            -7.448513
Si             8.873518            -5.632479             1.217762
Si             8.867694            -1.322543            -7.447594
Si           -10.998393            -3.475715            -0.962124
Si             4.532657            -3.474110            -5.269534
Si           -11.002819            -3.479351            -5.268177
Si             4.538569            -3.477310            -0.963245
Si             0.661264            10.345220             2.940679
Si             4.977665            -5.202695             2.927467
Si             4.965019            10.347765             2.944846
Si             0.667812            -5.187696             2.931949
Si             2.819705           -11.681978            -1.395434
Si             2.819032            -7.369028             7.290181
Si             2.820883            -7.375418            -1.400817
Si             2.793937           -11.678197             7.288618
Si            -1.510172            -9.529129             0.784835
Si             7.146210            -9.530601             5.089728
Si            -1.526594            -9.518669             5.105618
Si             7.153993            -9.530345             0.780459
Si            -1.077462           -11.244266            -3.115970
Si            -5.387435             4.297599            -3.120388
Si            -5.381961           -11.243785            -3.120277
Si            -1.081677             4.300805            -3.123910
Si            -3.232150            10.783312             1.220364
Si            -3.229083             6.478789            -7.454200
Si            -3.232164             6.475135             1.212536
Si            -3.224770            10.783886            -7.456705
Si             1.100770             8.626610            -0.958268
Si            -7.559615             8.630235            -5.276723
Si             1.104474             8.627090            -5.267109
Si            -7.565449             8.627892            -0.966949
Si             0.665443            -1.746333            -9.168895
Si             4.977426             6.910095            -9.163459
Si             4.970763            -1.754379            -9.164500
Si             0.670710             6.911546            -9.164655
Si             2.821060             0.430722            10.705498
Si             2.819256             4.729633            -4.829282
Si             2.822516             4.733045            10.706459
Si             2.815565             0.423255            -4.828290
Si            -1.512008             2.582771           -11.324200
Si             7.152146             2.575873            -7.010443
Si            -1.512733             2.583176            -7.015330
Si             7.156362             2.578292           -11.318479
Si            -1.075095             0.863638             8.983050
Si            -5.398119            -7.775868             9.017103
Si            -5.381302             0.863119             8.980116
Si            -1.060763            -7.751977             8.916642
Si            -3.240821            -1.309145           -10.881828
Si            -3.224492            -5.617412             4.629861
Si            -3.249876            -5.604673           -10.829091
Si            -3.222722            -1.314276             4.644543
Si             1.101086            -3.467096            11.135343
Si            -7.562236            -3.469591             6.830754
Si             1.137847            -3.448805             6.809374
Si            -7.579039            -3.462230            11.147472
O            -9.742549             9.097603            12.006306
O            -8.834578            -3.925694            12.013916
O            -8.807343             9.099379            -6.151571
O            -9.752869            -3.947514            -6.140691
O            11.898535            -9.991010             9.453438
O            11.895891            -9.064150            -3.581618
O            -6.250707            -9.059308             9.427971
O            -6.254416            -9.993998            -3.589681
O             9.340960            11.651215            -9.633954
O            -3.685261            11.652929            -8.713115
O             9.332092            -6.502308            -8.700385
O            -3.672096            -6.485132            -9.576141
O             9.337784            -9.993067            12.010885
O             8.407897             3.043627            12.013004
O             8.397482            -9.995612             5.962428
O             9.337522             3.043565             5.961161
O            11.903680             9.096077            -9.637864
O            11.893919             8.162677             3.398620
O             5.849296             8.161647            -9.629437
O             5.837780             9.096442             3.409717
O            -9.742567            11.657431             9.448231
O             3.275110            11.650140             8.531834
O            -9.745600             5.605315             8.516029
O             3.288807             5.605128             9.456052
O            -9.746525            -3.008314            -0.091484
O            -8.817586             8.162814            -0.095226
O            -8.810353            -2.999602             5.956628
O            -9.748131             8.164302             5.955963
O            11.894157             2.108694            -2.650536
O            11.899241             3.045919             8.518453
O            -6.258209             3.044820            -2.655329
O            -6.252797             2.114655             8.513261
O             9.337480            -0.450847             2.469801
O            -3.690677            -0.442268             3.394092
O             9.333914             5.602922             3.400511
O            -3.696617             5.601587             2.462482
O             9.335675             2.108606            -0.090079
O             8.405933            -9.064850            -0.090830
O             8.402732             2.108510            -6.138565
O             9.335044            -9.062899            -6.141468
O            11.898873            -3.008683             2.469133
O            11.891892            -3.944649            -8.698346
O             5.847992            -3.948653             2.466273
O             5.841516            -3.007546            -8.700203
O            -9.749680            -0.449834            -2.652274
O             3.280282            -0.449326            -3.576624
O            -9.748616            -6.504420            -3.580955
O             3.286348            -6.503005            -2.651898
O             2.350498             9.092822            -0.084129
O             3.288428            -3.945087            -0.091878
O             3.279903             9.097549             5.967667
O             2.387415            -3.915359             5.939471
O            -0.205235            -9.993737            -2.649112
O            -0.280215            -9.111358             8.606338
O             5.845205            -9.062842            -2.650667
O             5.840341            -9.995097             8.520047
O            -2.767579            11.654960             2.473885
O             8.399270            11.650107             3.403991
O            -2.765916            -6.496182             3.382346
O             8.407525            -6.505456             2.468971
O            -2.762559            -9.992388            -0.088220
O            -3.701521             3.047468            -0.098898
O            -3.696594            -9.992722            -6.147196
O            -2.764844             3.049711            -6.145401
O            -0.209265             9.092897             2.473720
O            -0.200014             8.163653            -8.699620
O            -6.258316             8.162483             2.464582
O            -6.250047             9.101568            -8.709054
O             2.353711            11.650072            -2.646361
O            -8.813005            11.651460            -3.588846
O             2.352691             5.600905            -3.577751
O            -8.819176             5.603793            -2.656227
O             2.346402            -2.996424            12.013538
O             3.289994             8.161964            12.016449
O             3.280954            -3.008218            -6.141463
O             2.356435             8.161285            -6.138251
O            -0.204425             2.115630             9.450926
O            -0.211519             3.046485            -3.584126
O             5.847681             3.046786             9.454948
O             5.843699             2.109269            -3.578640
O            -2.765999            -0.434990            -9.636132
O             8.402982            -0.449780            -8.698766
O            -2.761734             5.607305            -8.704771
O             8.409852             5.602338            -9.629714
O            -2.762365             2.116366            12.006198
O            -3.610976            -9.109835            11.936119
O            -3.693741             2.115056             5.955734
O            -2.786999            -9.059927             5.965391
O            -0.205932            -2.995298            -9.640593
O            -0.198270            -3.927128             3.381583
O            -6.278748            -3.912743            -9.602614
O            -6.254268            -3.000611             3.398959
O             2.356081            -0.437345             9.452136
O            -8.812176            -0.441627             8.516058
O             2.411959            -6.487221             8.546057
O            -8.833918            -6.494662             9.446733
O            -6.140863            -6.389586            -8.783301
O            11.791557            11.544000            -8.765136
O            11.780936            -6.392816            -9.572071
O            -6.131340            11.547883            -9.592457
O            -8.881855            -6.397233            -6.031049
O            -8.868551            11.547182            11.896105
O            -9.682963            11.544681            -6.039568
O            -9.683695            -6.387239            11.901010
O            -6.145991            -9.126171            -6.041478
O            11.788083            -9.122059            11.902645
O            -6.100827            -9.918142            11.870382
O            11.784626            -9.932733            -6.031606
O             5.737543             5.494996             8.582901
O            12.009106            11.766086             8.579753
O            12.009456             5.494834             9.389289
O             5.730769            11.763494             9.394681
O             8.465890             5.492503             5.851014
O             8.467598            11.762029           -12.082491
O             9.273366            11.761960             5.852442
O             9.279376             5.492211           -12.080297
O             5.730613             8.224881             5.855686
O            12.011750             8.224908           -12.085555
O             5.738759             9.032832           -12.078458
O            12.006051             9.033904             5.847994
O            -6.146133             5.713376             3.334125
O            11.787251            -0.558550             3.338481
O            11.783376             5.713540             2.528280
O            -6.142143            -0.553935             2.523999
O            -8.877009             5.715433             6.066273
O            -8.877454            -0.557991            -0.204164
O            -9.684993            -0.552809             6.066344
O            -9.688587             5.713707            -0.205851
O            -6.143229             2.985612             6.064180
O            11.784512             2.981100            -0.202073
O            -6.147416             2.172749            -0.206265
O            11.787139             2.174607             6.069414
O             5.735090            -6.612762            -3.521958
O            12.004675            -0.341511            -3.520813
O            12.006395            -6.614608            -2.709701
O             5.731488            -0.340181            -2.709210
O             8.463129            -6.613351            -6.250823
O             8.465840            -0.341756             0.021193
O             9.272795            -0.341087            -6.249557
O             9.277718            -6.614978             0.019915
O             5.730493            -3.878607            -6.251569
O            12.008468            -3.880735             0.020657
O             5.736876            -3.073646             0.019019
O            12.003154            -3.074042            -6.249782
O             5.957782            -6.398789             3.336203
O            -0.319853            11.543147             3.347923
O            -0.312396            -6.389599             2.533375
O             5.948502            11.542073             2.534243
O             3.205639            -6.392321             6.077521
O             3.222379            11.541233            -0.195542
O             2.395601            11.544083             6.085965
O             2.415684            -6.394197            -0.203612
O             5.945704            -9.128209             6.070942
O            -0.313239            -9.124372            -0.198365
O             5.956028            -9.933933            -0.201608
O            -0.345273            -9.920421             6.116556
O            -6.369874             5.494039            -3.526896
O            -0.095007            11.761680            -3.519637
O            -0.098736             5.494647            -2.710735
O            -6.364468            11.762926            -2.715086
O            -3.637789             5.497855            -6.257256
O            -3.635612            11.764755             0.021225
O            -2.822331            11.765419            -6.257638
O            -2.828195             5.495530             0.012916
O            -6.361885             8.226588            -6.259378
O            -0.097112             8.222231             0.023321
O            -6.367854             9.033510             0.015611
O            -0.092146             9.033420            -6.250241
O             5.959847             5.712737            -8.758932
O            -0.316439            -0.549525            -8.762248
O            -0.312030             5.715832            -9.572744
O             5.954083            -0.557612            -9.569604
O             3.225638             5.711808            -6.026788
O             3.225960            -0.551052            11.903278
O             2.412247            -0.558142            -6.027408
O             2.417383             5.714334            11.904625
O             5.954055             2.980395            -6.027841
O            -0.314149             2.989161            11.899237
O             5.958134             2.174885            11.903711
O            -0.316901             2.175269            -6.031834
O            -6.386441            -6.593668             8.592592
O            -0.089549            -0.329964             8.573726
O            -0.050924            -6.579674             9.304454
O            -6.364459            -0.332803             9.388805
O            -3.621449            -6.593531             5.828790
O            -3.640879            -0.328877           -12.083056
O            -2.819813            -0.332533             5.843676
O            -2.912758            -6.578550           -12.039084
O            -6.363332            -3.874564             5.846907
O            -0.100037            -3.875091           -12.087113
O            -6.386190            -3.061741           -12.062823
O            -0.071491            -3.062186             5.829890
O            -8.071374            -8.322126            11.139267
O           -10.472007           -10.721111            11.148317
O           -10.480395            -8.333279            -5.277743
O            -8.084715           -10.723798            -5.285056
O            11.029792            -8.331382            -7.970894
O            11.034041           -10.721682           -10.363283
O            -5.376215           -10.716214            -7.997570
O            -5.304311            -8.333103           -10.390315
O            -8.075439            10.801445            -7.980360
O           -10.472627            10.795490           -10.370012
O            -8.085458            -5.625151           -10.369041
O           -10.487427            -5.646611            -7.967513
O             7.678656             7.430885           -11.326393
O            10.070812             9.823562           -11.331397
O            10.065614             7.431661             5.096698
O             7.671374             9.823395             5.102379
O           -11.442643             7.434293             7.787139
O           -11.439697             9.827386            10.179026
O             4.976966             9.826413             7.794875
O             4.985484             7.432827            10.185621
O             7.671507           -11.691343             7.791976
O            10.068199           -11.688340            10.181792
O             7.677657             4.741768            10.184313
O            10.068869             4.741259             7.789538
O            -8.087566             3.774294            -0.959233
O           -10.479047             1.380771            -0.956153
O           -10.477242             3.776674             6.820030
O            -8.082980             1.385246             6.817411
O            11.031509             3.774126             4.130003
O            11.032317             1.380343             1.738536
O            -5.388328             1.384555             4.124126
O            -5.393567             3.773574             1.733310
O            -8.082433            -1.302596             4.127094
O           -10.477973            -1.310265             1.735710
O            -8.087324             6.466177             1.733753
O           -10.479748             6.467137             4.127670
O             7.677591            -4.675353             0.771597
O            10.068228            -2.280616             0.773553
O            10.062786            -4.673836            -7.002830
O             7.671003            -2.279161            -7.003219
O           -11.446680            -4.675145            -4.310212
O           -11.444496            -2.280311            -1.919721
O             4.976316            -2.278464            -4.310879
O             4.982386            -4.672588            -1.921956
O             7.671301             0.411535            -4.310330
O            10.066017             0.411368            -1.918428
O             7.674873            -7.366982            -1.919447
O            10.066500            -7.366973            -4.311858
O             4.016562            -8.332649            -0.955052
O             1.624261           -10.723844            -0.952560
O             1.597820            -8.335498             6.913553
O             3.989897           -10.718968             6.840734
O            -1.074548            -8.324473             4.145634
O            -1.067254           -10.724047             1.744884
O             6.702352           -10.725741             4.132255
O             6.710275            -8.334442             1.737140
O             4.007656            10.797236             4.141573
O             1.618326            10.790981             1.744499
O             4.021321            -5.647785             1.731293
O             1.620808            -5.627496             4.132651
O            -4.427578             7.434039             0.769920
O            -2.036252             9.824846             0.776640
O            -2.032911             7.434661            -7.006722
O            -4.422002             9.828298            -7.012324
O             0.659258             7.431834            -4.309285
O             0.656617             9.822091            -1.916792
O            -7.114873             9.824647            -4.317577
O            -7.121799             7.432235            -1.925302
O            -4.424877           -11.689579            -4.316523
O            -2.034682           -11.688665            -1.919568
O            -4.433846             4.746970            -1.923655
O            -2.034846             4.749965            -4.320825
O             4.018757             3.776735            11.152157
O             1.624661             1.387219            11.150127
O             1.623087             3.773041            -5.275091
O             4.012400             1.380219            -5.272613
O            -1.066085             3.778379            -7.972536
O            -1.066074             1.388408           -10.365955
O             6.707513             1.380710            -7.968765
O             6.712468             3.774245           -10.360605
O             4.014364            -1.309237            -7.967556
O             1.622748            -1.297798           -10.362657
O             4.020117             6.465112           -10.359421
O             1.626797             6.465456            -7.968051
O            -4.446056            -4.645076           -11.256530
O            -2.047493            -2.272728           -11.325417
O            -2.026974            -4.657694             5.068906
O            -4.418280            -2.274115             5.088304
O             0.732520            -4.646287             7.771431
O             0.664443            -2.273600            10.169402
O            -7.119296            -2.274735             7.791319
O            -7.145813            -4.658032            10.186244
O            -4.424115             0.417089             7.783959
O            -2.032116             0.416081            10.179407
O            -4.552302            -7.306358            10.283581
O            -1.931503            -7.307008             7.663949
O            -8.050860            -8.299184            -4.418581
O           -10.512284           -10.759795            -4.417333
O           -10.508262            -8.296162            10.289768
O            -8.041007           -10.749312            10.281378
O            -4.524996            -8.291265            -7.935731
O            -4.488107           -10.765222           -10.435442
O            10.169102           -10.759282            -7.936227
O            10.165786            -8.296310           -10.398444
O            -8.062209            -4.788077            -7.936686
O           -10.516879            -4.777172           -10.394118
O            -8.043997             9.931579           -10.405177
O           -10.502993             9.929855            -7.945325
O             7.635732             7.397399             4.236111
O            10.098417             9.857917             4.233494
O            10.107584             7.397267           -10.465137
O             7.644056             9.857778           -10.463170
O             4.115987             7.399160             7.760040
O             4.117483             9.858246            10.223596
O           -10.577940             9.861902             7.751213
O           -10.575855             7.399853            10.213119
O             7.641844             3.876644             7.757042
O            10.104863             3.876748            10.217003
O             7.638608           -10.824626            10.217574
O            10.099915           -10.823041             7.756115
O            -8.048326             3.811383             7.682440
O           -10.509727             1.350647             7.684678
O           -10.515573             3.808003            -1.821664
O            -8.052486             1.346591            -1.822952
O            -4.525775             3.810626             4.160181
O            -4.523950             1.348691             1.695824
O            10.169058             1.345764             4.166065
O            10.166693             3.807623             1.703122
O            -8.052025             7.330927             4.160830
O           -10.515157             7.330527             1.700147
O            -8.049369            -2.171812             1.701798
O           -10.508953            -2.172177             4.163006
O             7.635609            -4.706709            -7.867553
O            10.098348            -2.246251            -7.866749
O            10.104341            -4.708599             1.637606
O             7.641284            -2.247920             1.637722
O             4.115239            -4.707098            -4.347958
O             4.115366            -2.245008            -1.882879
O           -10.582023            -2.247155            -4.347049
O           -10.579718            -4.708064            -1.884311
O             7.639160            -8.231125            -4.346752
O            10.101858            -8.232356            -1.885064
O             7.638512             1.275285            -1.883322
O            10.099008             1.275507            -4.345082
O             4.052004            -8.293989             7.692955
O             1.552278           -10.768079             7.729335
O             1.589335            -8.297718            -1.819381
O             4.051135           -10.760415            -1.816887
O             7.569363            -8.300987             4.166393
O             7.570330           -10.761251             1.704936
O            -1.933722           -10.751654             4.175765
O            -1.924609            -8.298417             1.709137
O             4.052720            -4.790273             4.156604
O             1.595091            -4.778559             1.701573
O             4.043379             9.926438             1.713612
O             1.582884             9.927066             4.173325
O            -4.458358             7.402046            -7.877131
O            -1.993053             9.860715            -7.872057
O            -2.001150             7.395432             1.636804
O            -4.464325             9.860398             1.636713
O            -7.983543             7.399137            -4.354806
O            -7.983550             9.858809            -1.890402
O             1.523611             9.857723            -4.344013
O             1.520946             7.394889            -1.880170
O            -4.462033             3.881052            -4.350850
O            -2.010320             3.885224            -1.898523
O            -4.460357           -10.823150            -1.887416
O            -1.998898           -10.823993            -4.348928
O             4.050110             3.807038            -4.409136
O             1.583764             1.346000            -4.409617
O             1.591079             3.812351            10.283985
O             4.052704             1.352075            10.286428
O             7.574361             3.807127            -7.932424
O             7.573986             1.346218           -10.395752
O            -1.933215             1.354309            -7.938961
O            -1.931536             3.813768           -10.401384
O             4.054223             7.329088            -7.932088
O             1.593677             7.331967           -10.394760
O             4.046901            -2.171107           -10.395814
O             1.586545            -2.170230            -7.937369
O            -4.461051            -4.699207             4.215747
O            -1.987723            -2.230485             4.220367
O            -1.999155            -4.693516           -10.444692
O            -4.481100            -2.214592           -10.445914
O            -7.995853            -4.698388             7.750781
O            -7.990263            -2.230342            10.221261
O             1.545923            -2.216733             7.736338
O             1.543511            -4.694925            10.219094
O            -4.411529            -8.140733             7.803718
O            -2.197736            -7.741695            10.018604
O            -4.458611             1.284637            10.210736
O            -1.997830             1.283919             7.751798
C            -0.054983            -0.119657            -0.033953
C             0.014150             3.603282             1.130578
C            -0.526425             1.360817             0.085859
C             0.486426             2.123675             1.002234
H            -0.383611             1.789567            -0.956036
H            -1.497707             1.307208             0.673747
H            -0.027270            -0.606838             0.947457
H             0.944961            -0.182178            -0.478708
H            -0.746031            -0.680371            -0.672121
H             1.454014             2.179978             0.409363
H             0.347108             1.686179             2.041441
H             0.695245             4.158177             1.784412
H             0.002617             4.100547             0.154844
H            -0.990968             3.658858             1.562131
